info face="HGSeikaishotaiPRO" size=55 bold=0 italic=0 charset="" unicode=0 stretchH=100 smooth=1 aa=1 padding=1,1,1,1 spacing=-2,-2
common lineHeight=56 base=48 scaleW=512 scaleH=512 pages=1 packed=0
page id=0 file="japan55.png"
chars count=106
char id=10      x=0    y=0    width=0    height=0    xoffset=0    yoffset=0    xadvance=0    page=0    chnl=0 
char id=32      x=0    y=0    width=0    height=0    xoffset=-1   yoffset=46   xadvance=18   page=0    chnl=0 
char id=33      x=260  y=0    width=8    height=49   xoffset=2    yoffset=1    xadvance=12   page=0    chnl=0 
char id=34      x=375  y=225  width=22   height=16   xoffset=0    yoffset=2    xadvance=22   page=0    chnl=0 
char id=35      x=378  y=0    width=33   height=48   xoffset=1    yoffset=4    xadvance=35   page=0    chnl=0 
char id=36      x=220  y=0    width=27   height=50   xoffset=1    yoffset=3    xadvance=28   page=0    chnl=0 
char id=37      x=66   y=0    width=47   height=52   xoffset=1    yoffset=1    xadvance=50   page=0    chnl=0 
char id=38      x=281  y=57   width=45   height=42   xoffset=1    yoffset=6    xadvance=47   page=0    chnl=0 
char id=39      x=397  y=225  width=8    height=15   xoffset=0    yoffset=1    xadvance=9    page=0    chnl=0 
char id=40      x=36   y=0    width=15   height=52   xoffset=1    yoffset=1    xadvance=17   page=0    chnl=0 
char id=41      x=51   y=0    width=15   height=52   xoffset=1    yoffset=1    xadvance=17   page=0    chnl=0 
char id=42      x=393  y=185  width=25   height=30   xoffset=1    yoffset=12   xadvance=27   page=0    chnl=0 
char id=43      x=56   y=225  width=25   height=28   xoffset=1    yoffset=13   xadvance=27   page=0    chnl=0 
char id=44      x=405  y=225  width=8    height=15   xoffset=0    yoffset=40   xadvance=9    page=0    chnl=0 
char id=45      x=68   y=254  width=26   height=4    xoffset=1    yoffset=25   xadvance=28   page=0    chnl=0 
char id=46      x=32   y=254  width=7    height=7    xoffset=2    yoffset=41   xadvance=10   page=0    chnl=0 
char id=47      x=194  y=0    width=26   height=50   xoffset=0    yoffset=3    xadvance=26   page=0    chnl=0 
char id=48      x=146  y=185  width=30   height=40   xoffset=1    yoffset=8    xadvance=32   page=0    chnl=0 
char id=49      x=401  y=145  width=23   height=40   xoffset=5    yoffset=8    xadvance=33   page=0    chnl=0 
char id=50      x=424  y=145  width=30   height=40   xoffset=2    yoffset=8    xadvance=34   page=0    chnl=0 
char id=51      x=454  y=145  width=28   height=40   xoffset=2    yoffset=8    xadvance=32   page=0    chnl=0 
char id=52      x=0    y=185  width=32   height=40   xoffset=0    yoffset=8    xadvance=32   page=0    chnl=0 
char id=53      x=482  y=145  width=28   height=40   xoffset=2    yoffset=8    xadvance=32   page=0    chnl=0 
char id=54      x=32   y=185  width=28   height=40   xoffset=2    yoffset=8    xadvance=32   page=0    chnl=0 
char id=55      x=60   y=185  width=29   height=40   xoffset=2    yoffset=8    xadvance=33   page=0    chnl=0 
char id=56      x=89   y=185  width=29   height=40   xoffset=4    yoffset=8    xadvance=34   page=0    chnl=0 
char id=57      x=118  y=185  width=28   height=40   xoffset=3    yoffset=8    xadvance=33   page=0    chnl=0 
char id=58      x=498  y=185  width=7    height=29   xoffset=1    yoffset=13   xadvance=9    page=0    chnl=0 
char id=59      x=267  y=185  width=7    height=36   xoffset=1    yoffset=13   xadvance=9    page=0    chnl=0 
char id=60      x=378  y=57   width=23   height=41   xoffset=1    yoffset=7    xadvance=25   page=0    chnl=0 
char id=61      x=413  y=225  width=26   height=15   xoffset=1    yoffset=20   xadvance=28   page=0    chnl=0 
char id=62      x=401  y=57   width=23   height=41   xoffset=1    yoffset=7    xadvance=25   page=0    chnl=0 
char id=63      x=268  y=0    width=29   height=49   xoffset=1    yoffset=3    xadvance=31   page=0    chnl=0 
char id=64      x=88   y=57   width=41   height=45   xoffset=1    yoffset=4    xadvance=43   page=0    chnl=0 
char id=65      x=424  y=57   width=46   height=40   xoffset=0    yoffset=8    xadvance=46   page=0    chnl=0 
char id=66      x=470  y=57   width=37   height=40   xoffset=0    yoffset=8    xadvance=38   page=0    chnl=0 
char id=67      x=0    y=105  width=38   height=40   xoffset=1    yoffset=8    xadvance=39   page=0    chnl=0 
char id=68      x=38   y=105  width=42   height=40   xoffset=0    yoffset=8    xadvance=44   page=0    chnl=0 
char id=69      x=80   y=105  width=38   height=40   xoffset=0    yoffset=8    xadvance=38   page=0    chnl=0 
char id=70      x=118  y=105  width=36   height=40   xoffset=0    yoffset=8    xadvance=36   page=0    chnl=0 
char id=71      x=154  y=105  width=41   height=40   xoffset=1    yoffset=8    xadvance=43   page=0    chnl=0 
char id=72      x=195  y=105  width=45   height=40   xoffset=0    yoffset=8    xadvance=45   page=0    chnl=0 
char id=73      x=240  y=105  width=17   height=40   xoffset=0    yoffset=8    xadvance=17   page=0    chnl=0 
char id=74      x=466  y=0    width=24   height=47   xoffset=0    yoffset=8    xadvance=24   page=0    chnl=0 
char id=75      x=257  y=105  width=44   height=40   xoffset=0    yoffset=8    xadvance=44   page=0    chnl=0 
char id=76      x=301  y=105  width=36   height=40   xoffset=0    yoffset=8    xadvance=36   page=0    chnl=0 
char id=77      x=337  y=105  width=51   height=40   xoffset=0    yoffset=8    xadvance=53   page=0    chnl=0 
char id=78      x=388  y=105  width=43   height=40   xoffset=0    yoffset=8    xadvance=43   page=0    chnl=0 
char id=79      x=431  y=105  width=42   height=40   xoffset=1    yoffset=8    xadvance=44   page=0    chnl=0 
char id=80      x=473  y=105  width=34   height=40   xoffset=0    yoffset=8    xadvance=36   page=0    chnl=0 
char id=81      x=47   y=57   width=41   height=45   xoffset=1    yoffset=8    xadvance=42   page=0    chnl=0 
char id=82      x=0    y=145  width=40   height=40   xoffset=0    yoffset=8    xadvance=40   page=0    chnl=0 
char id=83      x=40   y=145  width=32   height=40   xoffset=0    yoffset=8    xadvance=34   page=0    chnl=0 
char id=84      x=72   y=145  width=41   height=40   xoffset=0    yoffset=8    xadvance=41   page=0    chnl=0 
char id=85      x=113  y=145  width=44   height=40   xoffset=0    yoffset=8    xadvance=44   page=0    chnl=0 
char id=86      x=157  y=145  width=43   height=40   xoffset=0    yoffset=8    xadvance=43   page=0    chnl=0 
char id=87      x=200  y=145  width=53   height=40   xoffset=0    yoffset=8    xadvance=55   page=0    chnl=0 
char id=88      x=253  y=145  width=41   height=40   xoffset=0    yoffset=8    xadvance=41   page=0    chnl=0 
char id=89      x=294  y=145  width=44   height=40   xoffset=0    yoffset=8    xadvance=44   page=0    chnl=0 
char id=90      x=338  y=145  width=33   height=40   xoffset=0    yoffset=8    xadvance=33   page=0    chnl=0 
char id=91      x=297  y=0    width=15   height=49   xoffset=2    yoffset=3    xadvance=18   page=0    chnl=0 
char id=92      x=238  y=57   width=43   height=42   xoffset=0    yoffset=6    xadvance=44   page=0    chnl=0 
char id=93      x=312  y=0    width=15   height=49   xoffset=1    yoffset=3    xadvance=18   page=0    chnl=0 
char id=94      x=0    y=254  width=18   height=9    xoffset=0    yoffset=2    xadvance=19   page=0    chnl=0 
char id=95      x=39   y=254  width=29   height=5    xoffset=-1   yoffset=51   xadvance=28   page=0    chnl=0 
char id=96      x=18   y=254  width=14   height=8    xoffset=1    yoffset=2    xadvance=15   page=0    chnl=0 
char id=97      x=81   y=225  width=26   height=27   xoffset=0    yoffset=21   xadvance=27   page=0    chnl=0 
char id=98      x=371  y=145  width=30   height=40   xoffset=0    yoffset=8    xadvance=31   page=0    chnl=0 
char id=99      x=107  y=225  width=26   height=27   xoffset=0    yoffset=21   xadvance=27   page=0    chnl=0 
char id=100     x=129  y=57   width=29   height=42   xoffset=0    yoffset=6    xadvance=31   page=0    chnl=0 
char id=101     x=133  y=225  width=26   height=27   xoffset=0    yoffset=21   xadvance=27   page=0    chnl=0 
char id=102     x=490  y=0    width=20   height=42   xoffset=0    yoffset=6    xadvance=19   page=0    chnl=0 
char id=103     x=293  y=185  width=28   height=34   xoffset=0    yoffset=21   xadvance=30   page=0    chnl=0 
char id=104     x=158  y=57   width=33   height=42   xoffset=0    yoffset=6    xadvance=33   page=0    chnl=0 
char id=105     x=363  y=57   width=15   height=41   xoffset=0    yoffset=7    xadvance=15   page=0    chnl=0 
char id=106     x=247  y=0    width=13   height=49   xoffset=0    yoffset=6    xadvance=18   page=0    chnl=0 
char id=107     x=191  y=57   width=31   height=42   xoffset=0    yoffset=6    xadvance=31   page=0    chnl=0 
char id=108     x=222  y=57   width=16   height=42   xoffset=-1   yoffset=6    xadvance=15   page=0    chnl=0 
char id=109     x=418  y=185  width=47   height=29   xoffset=0    yoffset=19   xadvance=47   page=0    chnl=0 
char id=110     x=465  y=185  width=33   height=29   xoffset=0    yoffset=19   xadvance=33   page=0    chnl=0 
char id=111     x=159  y=225  width=28   height=27   xoffset=0    yoffset=21   xadvance=30   page=0    chnl=0 
char id=112     x=209  y=185  width=29   height=37   xoffset=0    yoffset=18   xadvance=30   page=0    chnl=0 
char id=113     x=238  y=185  width=29   height=36   xoffset=0    yoffset=19   xadvance=30   page=0    chnl=0 
char id=114     x=0    y=225  width=23   height=29   xoffset=-1   yoffset=19   xadvance=22   page=0    chnl=0 
char id=115     x=187  y=225  width=21   height=27   xoffset=-1   yoffset=21   xadvance=22   page=0    chnl=0 
char id=116     x=274  y=185  width=19   height=35   xoffset=0    yoffset=13   xadvance=19   page=0    chnl=0 
char id=117     x=23   y=225  width=33   height=29   xoffset=0    yoffset=19   xadvance=33   page=0    chnl=0 
char id=118     x=208  y=225  width=31   height=27   xoffset=0    yoffset=21   xadvance=31   page=0    chnl=0 
char id=119     x=239  y=225  width=44   height=27   xoffset=0    yoffset=21   xadvance=44   page=0    chnl=0 
char id=120     x=283  y=225  width=31   height=27   xoffset=0    yoffset=21   xadvance=31   page=0    chnl=0 
char id=121     x=321  y=185  width=32   height=34   xoffset=0    yoffset=21   xadvance=32   page=0    chnl=0 
char id=122     x=314  y=225  width=24   height=27   xoffset=0    yoffset=21   xadvance=24   page=0    chnl=0 
char id=123     x=166  y=0    width=14   height=51   xoffset=1    yoffset=2    xadvance=16   page=0    chnl=0 
char id=124     x=0    y=0    width=4    height=57   xoffset=1    yoffset=-2   xadvance=6    page=0    chnl=0 
char id=125     x=180  y=0    width=14   height=51   xoffset=1    yoffset=2    xadvance=16   page=0    chnl=0 
char id=126     x=439  y=225  width=26   height=12   xoffset=1    yoffset=0    xadvance=28   page=0    chnl=0 
char id=12398   x=353  y=185  width=40   height=34   xoffset=7    yoffset=11   xadvance=55   page=0    chnl=0 
char id=12499   x=326  y=57   width=37   height=42   xoffset=13   yoffset=4    xadvance=55   page=0    chnl=0 
char id=12517   x=338  y=225  width=37   height=23   xoffset=8    yoffset=23   xadvance=55   page=0    chnl=0 
char id=12524   x=176  y=185  width=33   height=40   xoffset=14   yoffset=8    xadvance=55   page=0    chnl=0 
char id=12540   x=465  y=225  width=46   height=11   xoffset=4    yoffset=21   xadvance=55   page=0    chnl=0 
char id=20877   x=113  y=0    width=53   height=52   xoffset=1    yoffset=2    xadvance=55   page=0    chnl=0 
char id=23429   x=0    y=57   width=47   height=48   xoffset=4    yoffset=2    xadvance=55   page=0    chnl=0 
char id=27425   x=411  y=0    width=55   height=48   xoffset=1    yoffset=2    xadvance=55   page=0    chnl=0 
char id=29983   x=327  y=0    width=51   height=49   xoffset=1    yoffset=2    xadvance=55   page=0    chnl=0 
char id=33258   x=4    y=0    width=32   height=54   xoffset=12   yoffset=0    xadvance=55   page=0    chnl=0 
kernings count=0
